{ 
    "_id" : "59078f427326d71adc4b68b2", 
    "className" : "regiec.knast.erp.api.entities.ProductTemplateEntity", 
    "productType" : {
        "_id" : "58caf73f3d1a9721603f4f38", 
        "name" : "Homag"
    }, 
    "resourceInfo" : DBRef("resourceInfos", "59078f427326d71adc4b68b5"), 
    "productNo" : "1207700640", 
    "name" : "FUSS 140 H=325-375 B=500"
}
{ 
    "_id" : "59078f427326d71adc4b68b6", 
    "className" : "regiec.knast.erp.api.entities.ProductTemplateEntity", 
    "productType" : {
        "_id" : "58caf73f3d1a9721603f4f38", 
        "name" : "Homag"
    }, 
    "resourceInfo" : DBRef("resourceInfos", "59078f427326d71adc4b68b9"), 
    "productNo" : "1207700680", 
    "name" : "FUSS 140 H=325-375 B=900"
}
{ 
    "_id" : "59078f427326d71adc4b68ba", 
    "className" : "regiec.knast.erp.api.entities.ProductTemplateEntity", 
    "productType" : {
        "_id" : "58caf73f3d1a9721603f4f38", 
        "name" : "Homag"
    }, 
    "resourceInfo" : DBRef("resourceInfos", "59078f427326d71adc4b68bd"), 
    "productNo" : "1207700700", 
    "name" : "Fuss 140 H=325 - 375 B=1100"
}
{ 
    "_id" : "59078f427326d71adc4b68be", 
    "className" : "regiec.knast.erp.api.entities.ProductTemplateEntity", 
    "productType" : {
        "_id" : "58caf73f3d1a9721603f4f38", 
        "name" : "Homag"
    }, 
    "resourceInfo" : DBRef("resourceInfos", "59078f427326d71adc4b68c1"), 
    "productNo" : "1207700870", 
    "name" : "FUSS 140 H=365-450 B=900"
}
{ 
    "_id" : "59078f427326d71adc4b68c2", 
    "className" : "regiec.knast.erp.api.entities.ProductTemplateEntity", 
    "productType" : {
        "_id" : "58caf73f3d1a9721603f4f38", 
        "name" : "Homag"
    }, 
    "resourceInfo" : DBRef("resourceInfos", "59078f427326d71adc4b68c5"), 
    "productNo" : "1207700890", 
    "name" : "Fuss 140 H=365 - 450 B=1100"
}
{ 
    "_id" : "59078f427326d71adc4b68c6", 
    "className" : "regiec.knast.erp.api.entities.ProductTemplateEntity", 
    "productType" : {
        "_id" : "58caf73f3d1a9721603f4f38", 
        "name" : "Homag"
    }, 
    "resourceInfo" : DBRef("resourceInfos", "59078f427326d71adc4b68c9"), 
    "productNo" : "1207700900", 
    "name" : "Fuss 140 H=365 B=1200"
}
{ 
    "_id" : "59078f427326d71adc4b68ca", 
    "className" : "regiec.knast.erp.api.entities.ProductTemplateEntity", 
    "productType" : {
        "_id" : "58caf73f3d1a9721603f4f38", 
        "name" : "Homag"
    }, 
    "resourceInfo" : DBRef("resourceInfos", "59078f427326d71adc4b68cd"), 
    "productNo" : "1207701020", 
    "name" : "FUSS 140 H=395-510 B=500"
}
{ 
    "_id" : "59078f427326d71adc4b68ce", 
    "className" : "regiec.knast.erp.api.entities.ProductTemplateEntity", 
    "productType" : {
        "_id" : "58caf73f3d1a9721603f4f38", 
        "name" : "Homag"
    }, 
    "resourceInfo" : DBRef("resourceInfos", "59078f427326d71adc4b68d1"), 
    "productNo" : "1207701060", 
    "name" : "Fuss 140 H=395-510 B=900"
}
{ 
    "_id" : "59078f427326d71adc4b68d2", 
    "className" : "regiec.knast.erp.api.entities.ProductTemplateEntity", 
    "productType" : {
        "_id" : "58caf73f3d1a9721603f4f38", 
        "name" : "Homag"
    }, 
    "resourceInfo" : DBRef("resourceInfos", "59078f427326d71adc4b68d5"), 
    "productNo" : "1207701110", 
    "name" : "FUSS 140 H=395-510 B=1400"
}
{ 
    "_id" : "59078f427326d71adc4b68d6", 
    "className" : "regiec.knast.erp.api.entities.ProductTemplateEntity", 
    "productType" : {
        "_id" : "58caf73f3d1a9721603f4f38", 
        "name" : "Homag"
    }, 
    "resourceInfo" : DBRef("resourceInfos", "59078f427326d71adc4b68d9"), 
    "productNo" : "1207701210", 
    "name" : "FUSS 140 H=440-605 B=500"
}
{ 
    "_id" : "59078f427326d71adc4b68da", 
    "className" : "regiec.knast.erp.api.entities.ProductTemplateEntity", 
    "productType" : {
        "_id" : "58caf73f3d1a9721603f4f38", 
        "name" : "Homag"
    }, 
    "resourceInfo" : DBRef("resourceInfos", "59078f427326d71adc4b68dd"), 
    "productNo" : "1207701220", 
    "name" : "FUSS 140 H=440-605 B=600"
}
{ 
    "_id" : "59078f427326d71adc4b68de", 
    "className" : "regiec.knast.erp.api.entities.ProductTemplateEntity", 
    "productType" : {
        "_id" : "58caf73f3d1a9721603f4f38", 
        "name" : "Homag"
    }, 
    "resourceInfo" : DBRef("resourceInfos", "59078f427326d71adc4b68e1"), 
    "productNo" : "1207701250", 
    "name" : "Fuss 140 H=440-605 B=900"
}
{ 
    "_id" : "59078f427326d71adc4b68e2", 
    "className" : "regiec.knast.erp.api.entities.ProductTemplateEntity", 
    "productType" : {
        "_id" : "58caf73f3d1a9721603f4f38", 
        "name" : "Homag"
    }, 
    "resourceInfo" : DBRef("resourceInfos", "59078f427326d71adc4b68e6"), 
    "productNo" : "1207701270", 
    "name" : "FUSS 140 H440-610 B 1100"
}
{ 
    "_id" : "59078f427326d71adc4b68e7", 
    "className" : "regiec.knast.erp.api.entities.ProductTemplateEntity", 
    "productType" : {
        "_id" : "58caf73f3d1a9721603f4f38", 
        "name" : "Homag"
    }, 
    "resourceInfo" : DBRef("resourceInfos", "59078f427326d71adc4b68ea"), 
    "productNo" : "1207701280", 
    "name" : "Fuss 140 H=440-605 B=1200"
}
{ 
    "_id" : "59078f427326d71adc4b68eb", 
    "className" : "regiec.knast.erp.api.entities.ProductTemplateEntity", 
    "productType" : {
        "_id" : "58caf73f3d1a9721603f4f38", 
        "name" : "Homag"
    }, 
    "resourceInfo" : DBRef("resourceInfos", "59078f427326d71adc4b68ef"), 
    "productNo" : "1207701430", 
    "name" : "FUSS 140 H=535-780 NB = 800"
}
{ 
    "_id" : "59078f427326d71adc4b68f0", 
    "className" : "regiec.knast.erp.api.entities.ProductTemplateEntity", 
    "productType" : {
        "_id" : "58caf73f3d1a9721603f4f38", 
        "name" : "Homag"
    }, 
    "resourceInfo" : DBRef("resourceInfos", "59078f427326d71adc4b68f3"), 
    "productNo" : "1207701440", 
    "name" : "Fuss H=535 - 780 B= 858"
}
{ 
    "_id" : "59078f427326d71adc4b68f4", 
    "className" : "regiec.knast.erp.api.entities.ProductTemplateEntity", 
    "productType" : {
        "_id" : "58caf73f3d1a9721603f4f38", 
        "name" : "Homag"
    }, 
    "resourceInfo" : DBRef("resourceInfos", "59078f427326d71adc4b68f7"), 
    "productNo" : "1207701450", 
    "name" : "FUSS 140 H=535-780 NB=1000"
}
{ 
    "_id" : "59078f427326d71adc4b68f8", 
    "className" : "regiec.knast.erp.api.entities.ProductTemplateEntity", 
    "productType" : {
        "_id" : "58caf73f3d1a9721603f4f38", 
        "name" : "Homag"
    }, 
    "resourceInfo" : DBRef("resourceInfos", "59078f427326d71adc4b68fc"), 
    "productNo" : "1207701460", 
    "name" : "FUSS 140 H535-780 NB 1100"
}
{ 
    "_id" : "59078f427326d71adc4b68fd", 
    "className" : "regiec.knast.erp.api.entities.ProductTemplateEntity", 
    "productType" : {
        "_id" : "58caf73f3d1a9721603f4f38", 
        "name" : "Homag"
    }, 
    "resourceInfo" : DBRef("resourceInfos", "59078f427326d71adc4b6900"), 
    "productNo" : "1207701470", 
    "name" : "FUSS 140 H=535-780 NB=1200"
}
{ 
    "_id" : "59078f427326d71adc4b6901", 
    "className" : "regiec.knast.erp.api.entities.ProductTemplateEntity", 
    "productType" : {
        "_id" : "58caf73f3d1a9721603f4f38", 
        "name" : "Homag"
    }, 
    "resourceInfo" : DBRef("resourceInfos", "59078f427326d71adc4b6904"), 
    "productNo" : "1207701490", 
    "name" : "FUSS 140 H=535-780 NB=1400"
}
{ 
    "_id" : "59078f427326d71adc4b6905", 
    "className" : "regiec.knast.erp.api.entities.ProductTemplateEntity", 
    "productType" : {
        "_id" : "58caf73f3d1a9721603f4f38", 
        "name" : "Homag"
    }, 
    "resourceInfo" : DBRef("resourceInfos", "59078f427326d71adc4b6909"), 
    "productNo" : "1207701510", 
    "name" : "FUSS 140 H=535-780 NB=1600"
}
{ 
    "_id" : "59078f427326d71adc4b690a", 
    "className" : "regiec.knast.erp.api.entities.ProductTemplateEntity", 
    "productType" : {
        "_id" : "58caf73f3d1a9721603f4f38", 
        "name" : "Homag"
    }, 
    "resourceInfo" : DBRef("resourceInfos", "59078f427326d71adc4b690d"), 
    "productNo" : "1207701550", 
    "name" : "FUSS 140 H=535-780 NB=2000"
}
{ 
    "_id" : "59078f427326d71adc4b690e", 
    "className" : "regiec.knast.erp.api.entities.ProductTemplateEntity", 
    "productType" : {
        "_id" : "58caf73f3d1a9721603f4f38", 
        "name" : "Homag"
    }, 
    "resourceInfo" : DBRef("resourceInfos", "59078f427326d71adc4b6912"), 
    "productNo" : "1207701570", 
    "name" : "FUSS 140 H=535-780 NB=2200"
}
{ 
    "_id" : "59078f427326d71adc4b6913", 
    "className" : "regiec.knast.erp.api.entities.ProductTemplateEntity", 
    "productType" : {
        "_id" : "58caf73f3d1a9721603f4f38", 
        "name" : "Homag"
    }, 
    "resourceInfo" : DBRef("resourceInfos", "59078f427326d71adc4b6916"), 
    "productNo" : "1207701630", 
    "name" : "FUSS 140 H=690-930 NB=900"
}
{ 
    "_id" : "59078f427326d71adc4b6917", 
    "className" : "regiec.knast.erp.api.entities.ProductTemplateEntity", 
    "productType" : {
        "_id" : "58caf73f3d1a9721603f4f38", 
        "name" : "Homag"
    }, 
    "resourceInfo" : DBRef("resourceInfos", "59078f427326d71adc4b691a"), 
    "productNo" : "1207701640", 
    "name" : "FUSS 140 H=690-930 NB=1000"
}
{ 
    "_id" : "59078f427326d71adc4b691b", 
    "className" : "regiec.knast.erp.api.entities.ProductTemplateEntity", 
    "productType" : {
        "_id" : "58caf73f3d1a9721603f4f38", 
        "name" : "Homag"
    }, 
    "resourceInfo" : DBRef("resourceInfos", "59078f427326d71adc4b691e"), 
    "productNo" : "1207701660", 
    "name" : "FUSS 140 H=690-930 NB=1200"
}
{ 
    "_id" : "59078f427326d71adc4b691f", 
    "className" : "regiec.knast.erp.api.entities.ProductTemplateEntity", 
    "productType" : {
        "_id" : "58caf73f3d1a9721603f4f38", 
        "name" : "Homag"
    }, 
    "resourceInfo" : DBRef("resourceInfos", "59078f427326d71adc4b6922"), 
    "productNo" : "1207701680", 
    "name" : "FUSS 140 H=690-930 NB=1400"
}
{ 
    "_id" : "59078f427326d71adc4b6923", 
    "className" : "regiec.knast.erp.api.entities.ProductTemplateEntity", 
    "productType" : {
        "_id" : "58caf73f3d1a9721603f4f38", 
        "name" : "Homag"
    }, 
    "resourceInfo" : DBRef("resourceInfos", "59078f427326d71adc4b6926"), 
    "productNo" : "1207701690", 
    "name" : "FUSS 140 H=690-930 NB=1500"
}
{ 
    "_id" : "59078f427326d71adc4b6927", 
    "className" : "regiec.knast.erp.api.entities.ProductTemplateEntity", 
    "productType" : {
        "_id" : "58caf73f3d1a9721603f4f38", 
        "name" : "Homag"
    }, 
    "resourceInfo" : DBRef("resourceInfos", "59078f427326d71adc4b692a"), 
    "productNo" : "1207701720", 
    "name" : "FUSS 140 H=690-930 NB=1800"
}
{ 
    "_id" : "59078f427326d71adc4b692b", 
    "className" : "regiec.knast.erp.api.entities.ProductTemplateEntity", 
    "productType" : {
        "_id" : "58caf73f3d1a9721603f4f38", 
        "name" : "Homag"
    }, 
    "resourceInfo" : DBRef("resourceInfos", "59078f427326d71adc4b692e"), 
    "productNo" : "1207701760", 
    "name" : "FUSS 140 H=690-930 NB=2200"
}
{ 
    "_id" : "59078f427326d71adc4b692f", 
    "className" : "regiec.knast.erp.api.entities.ProductTemplateEntity", 
    "productType" : {
        "_id" : "58caf73f3d1a9721603f4f38", 
        "name" : "Homag"
    }, 
    "resourceInfo" : DBRef("resourceInfos", "59078f427326d71adc4b6932"), 
    "productNo" : "1207702130", 
    "name" : "FUSS 140 H=890-1130 B=1400"
}
{ 
    "_id" : "59089a527326d7202042a62d", 
    "className" : "regiec.knast.erp.api.entities.ProductTemplateEntity", 
    "productType" : {
        "_id" : "58caf73f3d1a9721603f4f38", 
        "name" : "Homag"
    }, 
    "productNo" : "123123123", 
    "name" : "dupadupa", 
    "comments" : "sdffsf"
}
{ 
    "_id" : "5908a4fb7326d720207b8b3f", 
    "className" : "regiec.knast.erp.api.entities.ProductTemplateEntity", 
    "productType" : {
        "_id" : "58caf73f3d1a9721603f4f38", 
        "name" : "Homag"
    }, 
    "partCard" : {
        "materialParts" : [
            {
                "materialTemplate" : DBRef("materialTemplates", "58f79611161f391188158c67"), 
                "partDimension" : "123x32", 
                "count" : NumberInt(3), 
                "comments" : "dupa w materialpart"
            }
        ]
    }, 
    "productNo" : "123123123111", 
    "name" : "dupadupa", 
    "comments" : "sdffsf"
}
{ 
    "_id" : "5908ae1c7326d730684f2e06", 
    "className" : "regiec.knast.erp.api.entities.ProductTemplateEntity", 
    "productType" : {
        "_id" : "58caf73f3d1a9721603f4f38", 
        "name" : "Homag"
    }, 
    "partCard" : {
        "materialParts" : [
            {
                "materialTemplate" : DBRef("materialTemplates", "58f79611161f391188158c67"), 
                "partDimension" : "122", 
                "count" : NumberInt(1), 
                "comments" : ""
            }, 
            {
                "materialTemplate" : DBRef("materialTemplates", "58f79611161f391188158c6a"), 
                "partDimension" : "232", 
                "count" : NumberInt(2), 
                "comments" : ""
            }
        ], 
        "wareParts" : [
            {
                "wareTemplate" : DBRef("wareTemplates", "58f93cfd161f39306c0db943"), 
                "count" : NumberInt(5), 
                "comments" : ""
            }, 
            {
                "wareTemplate" : DBRef("wareTemplates", "58f93d18161f39306c0db947"), 
                "count" : NumberInt(6), 
                "comments" : ""
            }
        ], 
        "semiproductParts" : [
            {
                "semiproductTemplate" : DBRef("semiproductTemplates", "5902624f55c9d52104775dd4"), 
                "count" : NumberInt(3), 
                "comments" : "robić w kooperacji"
            }, 
            {
                "semiproductTemplate" : DBRef("semiproductTemplates", "5902628a55c9d52104775de0"), 
                "count" : NumberInt(4), 
                "comments" : ""
            }
        ]
    }, 
    "resourceInfo" : DBRef("resourceInfos", "5908ae1c7326d730684f2e09"), 
    "productNo" : "666666666", 
    "name" : "wózek", 
    "comments" : "product tempalte with part card"
}
{ 
    "_id" : "590a29d255c9d51074775ceb", 
    "className" : "regiec.knast.erp.api.entities.ProductTemplateEntity", 
    "productType" : {
        "_id" : "58e1038b3d1a971d708577c8", 
        "name" : "Scanclimber"
    }, 
    "partCard" : {
        "materialParts" : [
            {
                "materialTemplate" : DBRef("materialTemplates", "58f79611161f391188158c68"), 
                "count" : NumberInt(3), 
                "comments" : "oauhsdasd"
            }, 
            {
                "materialTemplate" : DBRef("materialTemplates", "58f79611161f391188158c6a")
            }, 
            {
                "materialTemplate" : DBRef("materialTemplates", "58f8f54a161f39251c343a04")
            }
        ], 
        "wareParts" : [
            {
                "wareTemplate" : DBRef("wareTemplates", "58f93cfd161f39306c0db943")
            }
        ], 
        "semiproductParts" : [
            {
                "semiproductTemplate" : DBRef("semiproductTemplates", "5902626455c9d52104775dd8"), 
                "count" : NumberInt(1)
            }
        ]
    }
}
{ 
    "_id" : "590a2ad555c9d51074775cec", 
    "className" : "regiec.knast.erp.api.entities.ProductTemplateEntity", 
    "productType" : {
        "_id" : "58e1038d3d1a971d708577c9", 
        "name" : "Weiman"
    }, 
    "partCard" : {
        "materialParts" : [
            {
                "materialTemplate" : DBRef("materialTemplates", "58f79611161f391188158c67"), 
                "count" : NumberInt(1)
            }
        ]
    }, 
    "productNo" : "", 
    "name" : "asd"
}
{ 
    "_id" : "590a36f555c9d526dce058f3", 
    "className" : "regiec.knast.erp.api.entities.ProductTemplateEntity", 
    "productType" : {
        "_id" : "58e1038b3d1a971d708577c8", 
        "name" : "Scanclimber"
    }, 
    "partCard" : {
        "materialParts" : [
            {
                "materialTemplate" : DBRef("materialTemplates", "58f79611161f391188158c68"), 
                "partDimension" : "", 
                "count" : NumberInt(2), 
                "comments" : ""
            }
        ]
    }, 
    "resourceInfo" : DBRef("resourceInfos", "590a36f555c9d526dce058f7"), 
    "productNo" : "0-2222", 
    "name" : "siemka", 
    "comments" : "nowe comments"
}
{ 
    "_id" : "590a389755c9d526dce058f8", 
    "className" : "regiec.knast.erp.api.entities.ProductTemplateEntity", 
    "productType" : {
        "_id" : "58e1038b3d1a971d708577c8", 
        "name" : "Scanclimber"
    }, 
    "partCard" : {
        "materialParts" : [
            {
                "materialTemplate" : DBRef("materialTemplates", "58f79611161f391188158c68"), 
                "partDimension" : "2", 
                "count" : NumberInt(1), 
                "comments" : "material comment"
            }
        ]
    }, 
    "resourceInfo" : DBRef("resourceInfos", "590a389755c9d526dce058fb"), 
    "productNo" : "0-33333", 
    "name" : "siemka", 
    "comments" : "comments"
}
{ 
    "_id" : "590a679e55c9d526dceff5e3", 
    "className" : "regiec.knast.erp.api.entities.ProductTemplateEntity", 
    "productType" : {
        "_id" : "58e1038b3d1a971d708577c8", 
        "name" : "Scanclimber"
    }, 
    "productNo" : "1231", 
    "name" : "dupa"
}
{ 
    "_id" : "590a67c155c9d526dceff5e4", 
    "className" : "regiec.knast.erp.api.entities.ProductTemplateEntity", 
    "productType" : {
        "_id" : "58e1038b3d1a971d708577c8", 
        "name" : "Scanclimber"
    }, 
    "partCard" : {
        "materialParts" : [
            {
                "materialTemplate" : DBRef("materialTemplates", "58f79611161f391188158c77"), 
                "count" : NumberInt(1)
            }
        ]
    }, 
    "productNo" : "111", 
    "name" : "dupa"
}
{ 
    "_id" : "590a67f055c9d526dceff5e5", 
    "className" : "regiec.knast.erp.api.entities.ProductTemplateEntity", 
    "productType" : {
        "_id" : "58e1038b3d1a971d708577c8", 
        "name" : "Scanclimber"
    }, 
    "partCard" : {
        "materialParts" : [
            {
                "materialTemplate" : DBRef("materialTemplates", "58f79611161f391188158c77"), 
                "count" : NumberInt(1)
            }
        ]
    }, 
    "resourceInfo" : DBRef("resourceInfos", "590a67f055c9d526dceff5e8"), 
    "productNo" : "1111", 
    "name" : "dupa"
}
{ 
    "_id" : "590b09e455c9d52228d3f657", 
    "className" : "regiec.knast.erp.api.entities.ProductTemplateEntity", 
    "productType" : {
        "_id" : "58caf73f3d1a9721603f4f38", 
        "name" : "Homag"
    }, 
    "partCard" : {
        "semiproductParts" : [
            {
                "semiproductTemplate" : DBRef("semiproductTemplates", "5902626455c9d52104775dd8")
            }
        ]
    }, 
    "resourceInfo" : DBRef("resourceInfos", "590b09e455c9d52228d3f65a"), 
    "productNo" : "homag-wahacz", 
    "name" : "homag-wahacz", 
    "comments" : "nie ma uwag :D"
}
{ 
    "_id" : "590b234455c9d52228d3f65c", 
    "className" : "regiec.knast.erp.api.entities.ProductTemplateEntity", 
    "productType" : {
        "_id" : "58e1038d3d1a971d708577c9", 
        "name" : "Weiman"
    }, 
    "partCard" : {
        "materialParts" : [
            {
                "materialTemplate" : DBRef("materialTemplates", "58f79611161f391188158c67"), 
                "count" : NumberInt(1)
            }
        ], 
        "wareParts" : [
            {
                "wareTemplate" : DBRef("wareTemplates", "58f93cfd161f39306c0db943"), 
                "count" : NumberInt(1)
            }
        ], 
        "semiproductParts" : [
            {
                "semiproductTemplate" : DBRef("semiproductTemplates", "590262a655c9d52104775de8"), 
                "count" : NumberInt(1)
            }
        ]
    }, 
    "productNo" : "123123123123", 
    "name" : "test nazwa", 
    "comments" : "test uwaga"
}
{ 
    "_id" : "590b2ed055c9d522289e21ad", 
    "className" : "regiec.knast.erp.api.entities.ProductTemplateEntity", 
    "productType" : {
        "_id" : "58e1038b3d1a971d708577c8", 
        "name" : "Scanclimber"
    }, 
    "partCard" : {
        "materialParts" : [
            {
                "materialTemplate" : DBRef("materialTemplates", "58f79611161f391188158c67"), 
                "cuttedSectionSize" : "12", 
                "count" : NumberInt(1)
            }
        ]
    }, 
    "productNo" : "test123123", 
    "name" : "test"
}
{ 
    "_id" : "590b536455c9d52228ea1727", 
    "className" : "regiec.knast.erp.api.entities.ProductTemplateEntity", 
    "productType" : {
        "_id" : "58caf73f3d1a9721603f4f38", 
        "name" : "Homag"
    }, 
    "resourceInfo" : DBRef("resourceInfos", "590b536455c9d52228ea172a"), 
    "productNo" : "111222333", 
    "name" : "111222333"
}
