{ 
    "_id" : "58af6b1e9fd2e012f8198723", 
    "className" : "regiec.knast.erp.api.entities.MaterialTypeEntity", 
    "name" : "Pręty okrągłe", 
    "dimension" : "fi"
}
{ 
    "_id" : "58b31b59d8c7802290595236", 
    "className" : "regiec.knast.erp.api.entities.MaterialTypeEntity", 
    "name" : "Pręty szesciokatne", 
    "dimension" : "fi"
}
{ 
    "_id" : "58b31b71d8c7802290595237", 
    "className" : "regiec.knast.erp.api.entities.MaterialTypeEntity", 
    "name" : "Prety kwadratowe", 
    "dimension" : "fi"
}
{ 
    "_id" : "58b31b7dd8c7802290595238", 
    "className" : "regiec.knast.erp.api.entities.MaterialTypeEntity", 
    "name" : "Płaskowniki", 
    "dimension" : "AxB"
}
{ 
    "_id" : "58b31b94d8c7802290595239", 
    "className" : "regiec.knast.erp.api.entities.MaterialTypeEntity", 
    "name" : "Blachy", 
    "dimension" : "AxBxC"
}
{ 
    "_id" : "58b73d0a4c1926221c03a214", 
    "className" : "regiec.knast.erp.api.entities.MaterialTypeEntity", 
    "name" : "Rury", 
    "dimension" : "fi"
}
{ 
    "_id" : "58b73eb94c1926221c03a215", 
    "className" : "regiec.knast.erp.api.entities.MaterialTypeEntity", 
    "name" : "Profile", 
    "dimension" : "AxBxC"
}
{ 
    "_id" : "58b73ebb4c1926221c03a216", 
    "className" : "regiec.knast.erp.api.entities.MaterialTypeEntity", 
    "name" : "Ceowniki", 
    "dimension" : "AxBxC"
}
{ 
    "_id" : "58b73ebc4c1926221c03a217", 
    "className" : "regiec.knast.erp.api.entities.MaterialTypeEntity", 
    "name" : "Teowniki", 
    "dimension" : "AxBxC"
}
{ 
    "_id" : "58b73ebe4c1926221c03a218", 
    "className" : "regiec.knast.erp.api.entities.MaterialTypeEntity", 
    "name" : "Dwuteowniki", 
    "dimension" : "AxBxC"
}
